---
http_interactions:
- request:
    method: get
    uri: https://api.flickr.com/services/rest?api_key=7c0c66786e5ceff37688eeb8357c78ec&format=json&method=flickr.photos.search&nojsoncallback=1&text=denver,co
    body:
      encoding: US-ASCII
      string: ''
    headers:
      User-Agent:
      - Faraday v0.15.4
      Accept-Encoding:
      - gzip;q=1.0,deflate;q=0.6,identity;q=0.3
      Accept:
      - "*/*"
  response:
    status:
      code: 200
      message: OK
    headers:
      Content-Type:
      - application/json
      Transfer-Encoding:
      - chunked
      Connection:
      - keep-alive
      Date:
      - Wed, 31 Jul 2019 19:38:00 GMT
      Server:
      - Apache/2.4.39 (Ubuntu)
      X-Content-Type-Options:
      - nosniff
      X-Frame-Options:
      - SAMEORIGIN
      X-Cache:
      - Miss from cloudfront
      Via:
      - 1.1 dcee1124728af441beff75c95d9d9d74.cloudfront.net (CloudFront)
      X-Amz-Cf-Pop:
      - DEN50-C2
      X-Amz-Cf-Id:
      - QojTTYtbw-7hg4hbEwQA0xJ-4imtf5szvxKKQWbwK1R3Lk5_GTirsQ==
    body:
      encoding: UTF-8
      string: '{"photos":{"page":1,"pages":68,"perpage":100,"total":"6756","photo":[{"id":"48323439591","owner":"154451654@N04","secret":"c891dcc76e","server":"65535","farm":66,"title":"Uptown
        Denver","ispublic":1,"isfriend":0,"isfamily":0},{"id":"48284987957","owner":"56683178@N06","secret":"f2a09b6fdf","server":"65535","farm":66,"title":"BN
        252 at South Denver, CO November-December, 1986","ispublic":1,"isfriend":0,"isfamily":0},{"id":"48204924577","owner":"75688338@N00","secret":"dcec93a378","server":"65535","farm":66,"title":"07.04.19","ispublic":1,"isfriend":0,"isfamily":0},{"id":"48196393242","owner":"75688338@N00","secret":"583bec6eb2","server":"65535","farm":66,"title":"Denver
        Fireworks 2019","ispublic":1,"isfriend":0,"isfamily":0},{"id":"48196343956","owner":"75688338@N00","secret":"e8b76801fe","server":"65535","farm":66,"title":"Denver
        Fireworks 2019","ispublic":1,"isfriend":0,"isfamily":0},{"id":"48196392827","owner":"75688338@N00","secret":"5bbf99b071","server":"65535","farm":66,"title":"Denver
        Fireworks 2019","ispublic":1,"isfriend":0,"isfamily":0},{"id":"48196343426","owner":"75688338@N00","secret":"46f6dd403d","server":"65535","farm":66,"title":"Denver
        Fireworks 2019","ispublic":1,"isfriend":0,"isfamily":0},{"id":"48185137057","owner":"71779884@N00","secret":"eb2327c7d2","server":"65535","farm":66,"title":"BAM2019_Day19_DenverCO_Picture
        (16)","ispublic":1,"isfriend":0,"isfamily":0},{"id":"48185135607","owner":"71779884@N00","secret":"de5a487f3a","server":"65535","farm":66,"title":"BAM2019_Day19_DenverCO_Picture
        (26)","ispublic":1,"isfriend":0,"isfamily":0},{"id":"48185073576","owner":"71779884@N00","secret":"f06a8e99d6","server":"65535","farm":66,"title":"BAM2019_Day19_DenverCO_Picture
        (28)","ispublic":1,"isfriend":0,"isfamily":0},{"id":"48185072536","owner":"71779884@N00","secret":"9ed420a678","server":"65535","farm":66,"title":"BAM2019_Day19_DenverCO_Picture
        (2)","ispublic":1,"isfriend":0,"isfamily":0},{"id":"48185071136","owner":"71779884@N00","secret":"d512335e29","server":"65535","farm":66,"title":"BAM2019_Day19_DenverCO_Picture
        (5)","ispublic":1,"isfriend":0,"isfamily":0},{"id":"48185129907","owner":"71779884@N00","secret":"9013c6a017","server":"65535","farm":66,"title":"BAM2019_Day19_DenverCO_Picture
        (6)","ispublic":1,"isfriend":0,"isfamily":0},{"id":"48185067951","owner":"71779884@N00","secret":"60edb2ff58","server":"65535","farm":66,"title":"BAM2019_Day19_DenverCO_Picture
        (8)","ispublic":1,"isfriend":0,"isfamily":0},{"id":"48185066236","owner":"71779884@N00","secret":"c399e24c53","server":"65535","farm":66,"title":"BAM2019_Day19_DenverCO_Picture
        (11)","ispublic":1,"isfriend":0,"isfamily":0},{"id":"48185064346","owner":"71779884@N00","secret":"42a5d5d3a9","server":"65535","farm":66,"title":"BAM2019_Day19_DenverCO_Picture
        (14)","ispublic":1,"isfriend":0,"isfamily":0},{"id":"48148080061","owner":"35390579@N04","secret":"78d0cd8974","server":"65535","farm":66,"title":"Day179_2019","ispublic":1,"isfriend":0,"isfamily":0},{"id":"48129453516","owner":"56683178@N06","secret":"8b4053274e","server":"65535","farm":66,"title":"DRGW
        147 at North Yard Denver, CO 1986","ispublic":1,"isfriend":0,"isfamily":0},{"id":"48128195498","owner":"32145601@N05","secret":"5f0bc41a89","server":"65535","farm":66,"title":"Dale
        Chihuly Sculpture","ispublic":1,"isfriend":0,"isfamily":0},{"id":"48128195378","owner":"32145601@N05","secret":"8116f9c6e9","server":"65535","farm":66,"title":"D\u00eda
        de los Muertos","ispublic":1,"isfriend":0,"isfamily":0},{"id":"48128250942","owner":"32145601@N05","secret":"06d4d72c8f","server":"65535","farm":66,"title":"Japanese
        Garden Tea House","ispublic":1,"isfriend":0,"isfamily":0},{"id":"48103979678","owner":"32145601@N05","secret":"aee2372385","server":"65535","farm":66,"title":"CAF
        TBM-3E Avenger BuNo 53503, NL53503","ispublic":1,"isfriend":0,"isfamily":0},{"id":"48005217046","owner":"15775662@N00","secret":"5907d421f6","server":"65535","farm":66,"title":"Denver
        2019, bikes in the snow 2","ispublic":1,"isfriend":0,"isfamily":0},{"id":"48005304787","owner":"15775662@N00","secret":"78bdc4f974","server":"65535","farm":66,"title":"Denver
        2019, bikes in the snow","ispublic":1,"isfriend":0,"isfamily":0},{"id":"48005229323","owner":"15775662@N00","secret":"096696de41","server":"65535","farm":66,"title":"Denver
        2019, Jeff and his dog Titan","ispublic":1,"isfriend":0,"isfamily":0},{"id":"48005304627","owner":"15775662@N00","secret":"3abbdbe7aa","server":"65535","farm":66,"title":"Denver
        2019, Jeff my old college roommate","ispublic":1,"isfriend":0,"isfamily":0},{"id":"48005229163","owner":"15775662@N00","secret":"d4ed049786","server":"65535","farm":66,"title":"Denver
        2019, Manitou Cliff Dwellings ruins","ispublic":1,"isfriend":0,"isfamily":0},{"id":"48005216551","owner":"15775662@N00","secret":"e7ae1c7c25","server":"65535","farm":66,"title":"Denver
        2019, Peterson AFB Museum, Fly-gurl Naomi","ispublic":1,"isfriend":0,"isfamily":0},{"id":"47939692181","owner":"37033392@N06","secret":"3575a0baa1","server":"65535","farm":66,"title":"Wewatta
        Street","ispublic":1,"isfriend":0,"isfamily":0},{"id":"47938303661","owner":"94523300@N07","secret":"2637fdff00","server":"65535","farm":66,"title":"Bustling
        Bridge","ispublic":1,"isfriend":0,"isfamily":0},{"id":"47938299156","owner":"94523300@N07","secret":"10866692c4","server":"65535","farm":66,"title":"Union
        Station, Denver, CO","ispublic":1,"isfriend":0,"isfamily":0},{"id":"47938282283","owner":"94523300@N07","secret":"9770fb9207","server":"65535","farm":66,"title":"Street
        Seating","ispublic":1,"isfriend":0,"isfamily":0},{"id":"47937362533","owner":"37033392@N06","secret":"ec3d8d8fbd","server":"65535","farm":66,"title":"Arriving
        at Union Station","ispublic":1,"isfriend":0,"isfamily":0},{"id":"47937339392","owner":"37033392@N06","secret":"a4741decdf","server":"65535","farm":66,"title":"Downtown
        Denver","ispublic":1,"isfriend":0,"isfamily":0},{"id":"46960631405","owner":"94523300@N07","secret":"57e48d341f","server":"65535","farm":66,"title":"Wall
        of Clouds Reflected","ispublic":1,"isfriend":0,"isfamily":0},{"id":"40910443713","owner":"94523300@N07","secret":"5d73e92ddb","server":"65535","farm":66,"title":"Arching
        The High Rise","ispublic":1,"isfriend":0,"isfamily":0},{"id":"40910441923","owner":"94523300@N07","secret":"32ce621cf0","server":"65535","farm":66,"title":"Urban
        View","ispublic":1,"isfriend":0,"isfamily":0},{"id":"33999602828","owner":"94523300@N07","secret":"b369e901b0","server":"65535","farm":66,"title":"Urban
        Cabling Reflected","ispublic":1,"isfriend":0,"isfamily":0},{"id":"47876892741","owner":"94523300@N07","secret":"d5d282b3f4","server":"65535","farm":66,"title":"Booths
        Before Gifts","ispublic":1,"isfriend":0,"isfamily":0},{"id":"47813297381","owner":"34953375@N06","secret":"a9af3736fa","server":"65535","farm":66,"title":"ADGZ1723
        The Oriental Theater, Dennver, CO","ispublic":1,"isfriend":0,"isfamily":0},{"id":"46996201534","owner":"41383470@N00","secret":"ae446a343e","server":"65535","farm":66,"title":"St.
        John''s Cathedral. Denver, Colorado","ispublic":1,"isfriend":0,"isfamily":0},{"id":"46996194864","owner":"41383470@N00","secret":"7e34e99a69","server":"65535","farm":66,"title":"St.
        John''s Cathedral. Denver, Colorado","ispublic":1,"isfriend":0,"isfamily":0},{"id":"46866694875","owner":"94523300@N07","secret":"35c680e515","server":"65535","farm":66,"title":"Elevator
        To The Sky","ispublic":1,"isfriend":0,"isfamily":0},{"id":"46866692255","owner":"94523300@N07","secret":"1a82ce5ab4","server":"65535","farm":66,"title":"Tables
        and Chairs","ispublic":1,"isfriend":0,"isfamily":0},{"id":"40816805453","owner":"94523300@N07","secret":"662698043a","server":"65535","farm":66,"title":"Urban
        Climbing","ispublic":1,"isfriend":0,"isfamily":0},{"id":"40816803083","owner":"94523300@N07","secret":"49145ed08b","server":"65535","farm":66,"title":"Sky''s
        The Limit","ispublic":1,"isfriend":0,"isfamily":0},{"id":"33905985538","owner":"94523300@N07","secret":"8c331c8f17","server":"65535","farm":66,"title":"Ice
        House Building, Denver, CO","ispublic":1,"isfriend":0,"isfamily":0},{"id":"47727048951","owner":"94523300@N07","secret":"e5feed1a45","server":"65535","farm":66,"title":"Higb
        Rising, Low Sitting","ispublic":1,"isfriend":0,"isfamily":0},{"id":"47727047151","owner":"94523300@N07","secret":"facfe9e866","server":"65535","farm":66,"title":"Urban
        Crest","ispublic":1,"isfriend":0,"isfamily":0},{"id":"47727045161","owner":"94523300@N07","secret":"46602b48c3","server":"65535","farm":66,"title":"High
        Strung Urban Jungle","ispublic":1,"isfriend":0,"isfamily":0},{"id":"47673969372","owner":"94523300@N07","secret":"a724954497","server":"65535","farm":66,"title":"Canopy
        Shelter","ispublic":1,"isfriend":0,"isfamily":0},{"id":"47673966752","owner":"94523300@N07","secret":"e67957ae32","server":"65535","farm":66,"title":"Blinded
        By Urban Patterns","ispublic":1,"isfriend":0,"isfamily":0},{"id":"33841265018","owner":"35390579@N04","secret":"e622e9cfe3","server":"65535","farm":66,"title":"Day117_2019","ispublic":1,"isfriend":0,"isfamily":0},{"id":"33823599548","owner":"35390579@N04","secret":"eee1c4fc2a","server":"65535","farm":66,"title":"Day115_2019","ispublic":1,"isfriend":0,"isfamily":0},{"id":"40716811033","owner":"94523300@N07","secret":"f76be9a8d3","server":"65535","farm":66,"title":"Summer
        Stroll","ispublic":1,"isfriend":0,"isfamily":0},{"id":"40716810113","owner":"94523300@N07","secret":"e3ec61baf2","server":"65535","farm":66,"title":"Zen
        30","ispublic":1,"isfriend":0,"isfamily":0},{"id":"46767033395","owner":"94523300@N07","secret":"f449a54728","server":"65535","farm":66,"title":"Urban
        Walk","ispublic":1,"isfriend":0,"isfamily":0},{"id":"46767032335","owner":"94523300@N07","secret":"8625e98800","server":"65535","farm":66,"title":"Field
        Cull","ispublic":1,"isfriend":0,"isfamily":0},{"id":"32739922827","owner":"94523300@N07","secret":"e0ff2911c6","server":"65535","farm":66,"title":"Being
        Coloradan Exhibit","ispublic":1,"isfriend":0,"isfamily":0},{"id":"40636562683","owner":"35390579@N04","secret":"05fc8163f2","server":"7801","farm":8,"title":"Adam_001","ispublic":1,"isfriend":0,"isfamily":0},{"id":"47602999131","owner":"35390579@N04","secret":"f95d4abd4e","server":"7897","farm":8,"title":"Adam_002","ispublic":1,"isfriend":0,"isfamily":0},{"id":"40636562393","owner":"35390579@N04","secret":"b405abf723","server":"7864","farm":8,"title":"Adam_003","ispublic":1,"isfriend":0,"isfamily":0},{"id":"47602998851","owner":"35390579@N04","secret":"f26d5fb4b5","server":"7803","farm":8,"title":"Adam_004","ispublic":1,"isfriend":0,"isfamily":0},{"id":"40636562193","owner":"35390579@N04","secret":"a6f0a48086","server":"7901","farm":8,"title":"Adam_005","ispublic":1,"isfriend":0,"isfamily":0},{"id":"47602998491","owner":"35390579@N04","secret":"843f7fc8bd","server":"7925","farm":8,"title":"Adam_006","ispublic":1,"isfriend":0,"isfamily":0},{"id":"40636561963","owner":"35390579@N04","secret":"49f582579f","server":"7911","farm":8,"title":"Adam_007","ispublic":1,"isfriend":0,"isfamily":0},{"id":"47602998041","owner":"35390579@N04","secret":"04e3b86392","server":"7846","farm":8,"title":"Adam_008","ispublic":1,"isfriend":0,"isfamily":0},{"id":"40636561693","owner":"35390579@N04","secret":"b356fbd2d5","server":"7824","farm":8,"title":"Adam_009","ispublic":1,"isfriend":0,"isfamily":0},{"id":"40636561563","owner":"35390579@N04","secret":"42fa8ef2ac","server":"7879","farm":8,"title":"Adam_011","ispublic":1,"isfriend":0,"isfamily":0},{"id":"47602997351","owner":"35390579@N04","secret":"861d46e0ce","server":"7877","farm":8,"title":"Adam_012","ispublic":1,"isfriend":0,"isfamily":0},{"id":"40636561323","owner":"35390579@N04","secret":"c69856e16a","server":"7817","farm":8,"title":"Adam_013","ispublic":1,"isfriend":0,"isfamily":0},{"id":"47602997101","owner":"35390579@N04","secret":"83cf3554a8","server":"7884","farm":8,"title":"Adam_014","ispublic":1,"isfriend":0,"isfamily":0},{"id":"40636561183","owner":"35390579@N04","secret":"ae8e603830","server":"7898","farm":8,"title":"Adam_015","ispublic":1,"isfriend":0,"isfamily":0},{"id":"47602996921","owner":"35390579@N04","secret":"ee9b130838","server":"7855","farm":8,"title":"Adam_016","ispublic":1,"isfriend":0,"isfamily":0},{"id":"40636560983","owner":"35390579@N04","secret":"5b0cf0c294","server":"7844","farm":8,"title":"Adam_017","ispublic":1,"isfriend":0,"isfamily":0},{"id":"33725826238","owner":"35390579@N04","secret":"b17ac6904f","server":"7924","farm":8,"title":"Adam_018","ispublic":1,"isfriend":0,"isfamily":0},{"id":"33724485998","owner":"35390579@N04","secret":"72f12c7be1","server":"7883","farm":8,"title":"Ace_001","ispublic":1,"isfriend":0,"isfamily":0},{"id":"47455499272","owner":"94523300@N07","secret":"d352419375","server":"7837","farm":8,"title":"In
        and Out Of Service","ispublic":1,"isfriend":0,"isfamily":0},{"id":"47455497102","owner":"94523300@N07","secret":"5c2fd17177","server":"7811","farm":8,"title":"Stroll
        R","ispublic":1,"isfriend":0,"isfamily":0},{"id":"46784497684","owner":"94523300@N07","secret":"ef088d2139","server":"7808","farm":8,"title":"Captured
        Patterns","ispublic":1,"isfriend":0,"isfamily":0},{"id":"46784494894","owner":"94523300@N07","secret":"2271e3bb72","server":"7842","farm":8,"title":"4036
        To Denver","ispublic":1,"isfriend":0,"isfamily":0},{"id":"46784490534","owner":"94523300@N07","secret":"e6c2fb3313","server":"7896","farm":8,"title":"Tracking
        The Shot","ispublic":1,"isfriend":0,"isfamily":0},{"id":"47483753921","owner":"23124865@N00","secret":"5d06c7d691","server":"7910","farm":8,"title":"Fairmount
        Mausoleum","ispublic":1,"isfriend":0,"isfamily":0},{"id":"46480365825","owner":"94523300@N07","secret":"eab2b39f6d","server":"7894","farm":8,"title":"Amtrak
        Lounge","ispublic":1,"isfriend":0,"isfamily":0},{"id":"46672223864","owner":"94523300@N07","secret":"51d74eae77","server":"7912","farm":8,"title":"Terminal
        Bar Well Lit","ispublic":1,"isfriend":0,"isfamily":0},{"id":"46672218144","owner":"94523300@N07","secret":"f32bf41468","server":"4868","farm":5,"title":"Who
        Dat Down The Line?","ispublic":1,"isfriend":0,"isfamily":0},{"id":"32453568377","owner":"94523300@N07","secret":"4559c880f2","server":"7893","farm":8,"title":"Curbside
        Reading in Red","ispublic":1,"isfriend":0,"isfamily":0},{"id":"32453562267","owner":"94523300@N07","secret":"ac7a9cc971","server":"7817","farm":8,"title":"Stacked
        Arches","ispublic":1,"isfriend":0,"isfamily":0},{"id":"32329200977","owner":"94523300@N07","secret":"352e06a219","server":"7872","farm":8,"title":"High
        Rise Lift","ispublic":1,"isfriend":0,"isfamily":0},{"id":"32329195767","owner":"94523300@N07","secret":"2f85802446","server":"7883","farm":8,"title":"Architecture
        Sweep and Fall","ispublic":1,"isfriend":0,"isfamily":0},{"id":"32329191087","owner":"94523300@N07","secret":"3940843d5a","server":"7863","farm":8,"title":"Sweeping
        Rail Station Architecture","ispublic":1,"isfriend":0,"isfamily":0},{"id":"40306484913","owner":"94523300@N07","secret":"30505ac75d","server":"7821","farm":8,"title":"2
        Airport","ispublic":1,"isfriend":0,"isfamily":0},{"id":"40306479663","owner":"94523300@N07","secret":"f3d79d3b64","server":"7868","farm":8,"title":"One
        Track Mind","ispublic":1,"isfriend":0,"isfamily":0},{"id":"33377058358","owner":"37033392@N06","secret":"1be91e323c","server":"7921","farm":8,"title":"Downtown
        Denver","ispublic":1,"isfriend":0,"isfamily":0},{"id":"46297918495","owner":"45895316@N00","secret":"640d450d66","server":"7891","farm":8,"title":"DSCN0051","ispublic":1,"isfriend":0,"isfamily":0},{"id":"46297905855","owner":"45895316@N00","secret":"751b466ed8","server":"7863","farm":8,"title":"DSCN0046","ispublic":1,"isfriend":0,"isfamily":0},{"id":"47160221312","owner":"45895316@N00","secret":"d4270f7e1b","server":"7844","farm":8,"title":"DSCN0043","ispublic":1,"isfriend":0,"isfamily":0},{"id":"47178050031","owner":"31065672@N03","secret":"d14f47ce61","server":"7832","farm":8,"title":"1943_Kay_Joy_DenverCO","ispublic":1,"isfriend":0,"isfamily":0},{"id":"46454334584","owner":"31065672@N03","secret":"db2318d624","server":"7826","farm":8,"title":"1943_Kay_Joy_DenverCO","ispublic":1,"isfriend":0,"isfamily":0},{"id":"46374171684","owner":"56683178@N06","secret":"43657512eb","server":"7813","farm":8,"title":"Denver
        Union Station  Trackside View June, 1998","ispublic":1,"isfriend":0,"isfamily":0}]},"stat":"ok"}'
    http_version: 
  recorded_at: Wed, 31 Jul 2019 19:37:59 GMT
recorded_with: VCR 5.0.0
